> table_test<-read.xlsx('/Users/neonrocks/Desktop/抽样调查期末报告的副本/二手车交易信息的副本.xlsx')
Error in read.xlsx("/Users/neonrocks/Desktop/抽样调查期末报告的副本/二手车交易信息的副本.xlsx") : 
  Please provide a sheet name OR a sheet index.
> table_test<-read_excel('/Users/neonrocks/Desktop/抽样调查期末报告的副本/二手车交易信息的副本.xlsx')
> table_test
# A tibble: 497 x 13
   X__2   X__1 厂商指导价 车辆归属地 品牌id 车系id  车型id   里程 最高有效出价 检测等级
   <chr> <dbl>      <dbl> <chr>       <dbl>  <dbl>   <dbl>  <dbl>        <dbl> <chr>   
 1 1      2.00      37.6  成都市      73.0   383      3630  28181       200200 二级    
 2 2      4.00      13.2  成都市      38.0   875      6944  96507        16800 四级    
 3 3      5.00      20.0  南京市       8.00  577     14067  84933        91300 三级    
 4 4      8.00      12.9  南京市      67.0   519     14773  17898        80000 二级    
 5 5     11.0       50.0  南京市      15.0    65.0    6808  26146       402200 二级    
 6 6     12.0       16.3  南京市       1.00  442     11598  71671        60900 三级    
 7 7     14.0       20.9  南京市      38.0   166      3281 106014       121000 三级    
 8 8     16.0        6.98 成都市      62.0   454      8858 103385        19100 三级    
 9 9     17.0       16.0  成都市      38.0  2896      7222  66815        90900 二级    
10 10    18.0       12.5  南京市       1.00  614   9005852  26512        91500 三级    
# ... with 487 more rows, and 3 more variables: 有效出价数量 <dbl>, 商户成交价 <dbl>,
#   贬值率 <dbl>
> sub1=sample(table_test, 30, replace = FALSE, prob =NULL)
Error in sample.int(length(x), size, replace, prob) : 
  'replace = FALSE'，因此不能取比总体要大的样本
 
> sub1=sample(nrow(table_test), 30, replace = FALSE, prob =NULL)
> sub1
 [1] 343 352 476 404 443 383 249 168 478 427 456 103 274 448  60 183 399  19 347 175  26
[22] 481 228  53 372 447 153 224 212 351
> table_test1=table_test[sub1,]
> table_test1
# A tibble: 30 x 13
   X__2   X__1 厂商指导价 车辆归属地 品牌id 车系id  车型id   里程 最高有效出价 检测等级
   <chr> <dbl>      <dbl> <chr>       <dbl>  <dbl>   <dbl>  <dbl>        <dbl> <chr>   
 1 343     500      12.6  重庆市       1.00    614    5694  27676        66800 三级    
 2 352     521      19.4  北京市       1.00    333   13730  56268       101000 三级    
 3 476     692      12.0  深圳市       8.00   2871    4876  24266        78000 二级    
 4 404     598       9.98 苏州市       1.00    207    9617 162569        36900 三级    
 5 443     647      20.9  成都市      38.0     166    7371  84129       125600 二级    
 6 383     570      11.3  温州市      62.0    2886 9001123  11396        82600 一级    
 7 249     380      12.0  苏州市      63.0     425    8388 127971        27700 二级    
 8 168     259      67.5  上海市      36.0     197   12429 102347       212200 四级    
 9 478     696      12.5  宁波市      67.0     519   10808  55060        40100 三级    
10 427     627      22.0  太原市       1.00    496    6228  98058       138300 三级    
# ... with 20 more rows, and 3 more variables: 有效出价数量 <dbl>, 商户成交价 <dbl>,
#   贬值率 <dbl>
> write.xlsx(table_test1,'/Users/neonrocks/Desktop/抽样调查期末报告的副本/二手车成交信息的副本.xlsx')
> read_excel('/Users/neonrocks/Desktop/抽样调查期末报告的副本/二手车成交信息的副本.xlsx')
# A tibble: 30 x 14
   X__3  X__2   X__1 厂商指导价 车辆归属地 品牌id 车系id  车型id   里程 最高有效出价
   <chr> <chr> <dbl>      <dbl> <chr>       <dbl>  <dbl>   <dbl>  <dbl>        <dbl>
 1 1     343     500      12.6  重庆市       1.00    614    5694  27676        66800
 2 2     352     521      19.4  北京市       1.00    333   13730  56268       101000
 3 3     476     692      12.0  深圳市       8.00   2871    4876  24266        78000
 4 4     404     598       9.98 苏州市       1.00    207    9617 162569        36900
 5 5     443     647      20.9  成都市      38.0     166    7371  84129       125600
 6 6     383     570      11.3  温州市      62.0    2886 9001123  11396        82600
 7 7     249     380      12.0  苏州市      63.0     425    8388 127971        27700
 8 8     168     259      67.5  上海市      36.0     197   12429 102347       212200
 9 9     478     696      12.5  宁波市      67.0     519   10808  55060        40100
10 10    427     627      22.0  太原市       1.00    496    6228  98058       138300
# ... with 20 more rows, and 4 more variables: 检测等级 <chr>, 有效出价数量 <dbl>,
#   商户成交价 <dbl>, 贬值率 <dbl>
> table_test1
# A tibble: 30 x 13
   X__2   X__1 厂商指导价 车辆归属地 品牌id 车系id  车型id   里程 最高有效出价 检测等级
   <chr> <dbl>      <dbl> <chr>       <dbl>  <dbl>   <dbl>  <dbl>        <dbl> <chr>   
 1 343     500      12.6  重庆市       1.00    614    5694  27676        66800 三级    
 2 352     521      19.4  北京市       1.00    333   13730  56268       101000 三级    
 3 476     692      12.0  深圳市       8.00   2871    4876  24266        78000 二级    
 4 404     598       9.98 苏州市       1.00    207    9617 162569        36900 三级    
 5 443     647      20.9  成都市      38.0     166    7371  84129       125600 二级    
 6 383     570      11.3  温州市      62.0    2886 9001123  11396        82600 一级    
 7 249     380      12.0  苏州市      63.0     425    8388 127971        27700 二级    
 8 168     259      67.5  上海市      36.0     197   12429 102347       212200 四级    
 9 478     696      12.5  宁波市      67.0     519   10808  55060        40100 三级    
10 427     627      22.0  太原市       1.00    496    6228  98058       138300 三级    
# ... with 20 more rows, and 3 more variables: 有效出价数量 <dbl>, 商户成交价 <dbl>,
#   贬值率 <dbl>
…
> var(table_test1[,13])
           贬值率
贬值率 0.02563451
> mean(table_test1[,13])
[1] NA
Warning message:
In mean.default(table_test1[, 13]) : 参数不是数值也不是逻辑值：回覆NA
> mean(table_test1[,13],na.rm=TRUE)
[1] NA
Warning message:
In mean.default(table_test1[, 13], na.rm = TRUE) :
  参数不是数值也不是逻辑值：回覆NA
> x=table_test1[,13]
> x
# A tibble: 30 x 1
   贬值率
    <dbl>
 1  0.529
 2  0.510
 3  0.636
 4  0.363
 5  0.583
 6  0.730
 7  0.225
 8  0.306
 9  0.311
10  0.614
# ... with 20 more rows
> mean(x)
[1] NA
Warning message:
In mean.default(x) : 参数不是数值也不是逻辑值：回覆NA
> NA
[1] NA
> x
# A tibble: 30 x 1
   贬值率
    <dbl>
 1  0.529
 2  0.510
 3  0.636
 4  0.363
 5  0.583
 6  0.730
 7  0.225
 8  0.306
 9  0.311
10  0.614
# ... with 20 more rows
…
  1   3   8  11  12  13  14  15  19  20  22  25  26  27  33  36  38  41  45  47  49  52 
 80  24  40   1  27   9  33  15   5   2   1   6  11   1  12   7  44   1   2   2   1   1 
 53  56  58  62  63  67  68  71  72  73  75  76  77  80  82  84 113 114 120 130 163 165 
  6   3  16  12  18  11   2  31  13   1  15   7   4   1   2   1   1   9   2   1   4   1 
173 181 203 
  1   9   1 
> table_test('里程')
Error in table_test("里程") : 没有"table_test"这个函数
> table_test[,7]
# A tibble: 497 x 1
    车型id
     <dbl>
 1    3630
 2    6944
 3   14067
 4   14773
 5    6808
 6   11598
 7    3281
 8    8858
 9    7222
10 9005852
# ... with 487 more rows
> table_test[,10]
# A tibble: 497 x 1
   检测等级
   <chr>   
 1 二级    
 2 四级    
 3 三级    
 4 二级    
 5 二级    
 6 三级    
 7 三级    
 8 三级    
 9 二级    
10 三级    
# ... with 487 more rows
> table_test[,8]
# A tibble: 497 x 1
     里程
    <dbl>
 1  28181
 2  96507
 3  84933
 4  17898
 5  26146
 6  71671
 7 106014
 8 103385
 9  66815
10  26512
# ... with 487 more rows
> licheng=table_test[,8]
> licheng
# A tibble: 497 x 1
     里程
    <dbl>
 1  28181
 2  96507
 3  84933
 4  17898
 5  26146
 6  71671
 7 106014
 8 103385
 9  66815
10  26512
# ... with 487 more rows
…
> colnames(table_test)[14]='按里程分层类别'
> colnames(table_test)
 [1] "X__2"           "X__1"           "厂商指导价"     "车辆归属地"     "品牌id"        
 [6] "车系id"         "车型id"         "里程"           "最高有效出价"   "检测等级"      
[11] "有效出价数量"   "商户成交价"     "贬值率"         "按里程分层类别"
> for(c in '里程'){}
> table_test[8,]
# A tibble: 1 x 14
  X__2   X__1 厂商指导价 车辆归属地 品牌id 车系id 车型id   里程 最高有效出价 检测等级
  <chr> <dbl>      <dbl> <chr>       <dbl>  <dbl>  <dbl>  <dbl>        <dbl> <chr>   
1 8      16.0       6.98 成都市       62.0    454   8858 103385        19100 三级    
# ... with 4 more variables: 有效出价数量 <dbl>, 商户成交价 <dbl>, 贬值率 <dbl>,
#   按里程分层类别 <dbl>
> table_test[,8]
# A tibble: 497 x 1
     里程
    <dbl>
 1  28181
 2  96507
 3  84933
 4  17898
 5  26146
 6  71671
 7 106014
 8 103385
 9  66815
10  26512
# ... with 487 more rows
…
[1] 497
[1] 498
> table_test[498,8]
# A tibble: 1 x 1
   里程
  <dbl>
1    NA
> table_test[497,8]
# A tibble: 1 x 1
   里程
  <dbl>
1 73286
> for(i in 1:497){if(table_test[i,8]<3000){table_test[i,14]=1}else if(table_test[i,8]>3000&&table_test[i,8]<10000){table_test[i,14]=2}else if(table_test[i,8]>10000&&table_test[i,8]<100000){table_test[i,14]=3}else if(table_test[i,8]>100000){table_test[i,14]=4}}
> table_test
# A tibble: 497 x 14
   X__2   X__1 厂商指导价 车辆归属地 品牌id 车系id  车型id   里程 最高有效出价 检测等级
   <chr> <dbl>      <dbl> <chr>       <dbl>  <dbl>   <dbl>  <dbl>        <dbl> <chr>   
 1 1      2.00      37.6  成都市      73.0   383      3630  28181       200200 二级    
 2 2      4.00      13.2  成都市      38.0   875      6944  96507        16800 四级    
 3 3      5.00      20.0  南京市       8.00  577     14067  84933        91300 三级    
 4 4      8.00      12.9  南京市      67.0   519     14773  17898        80000 二级    
 5 5     11.0       50.0  南京市      15.0    65.0    6808  26146       402200 二级    
 6 6     12.0       16.3  南京市       1.00  442     11598  71671        60900 三级    
 7 7     14.0       20.9  南京市      38.0   166      3281 106014       121000 三级    
 8 8     16.0        6.98 成都市      62.0   454      8858 103385        19100 三级    
 9 9     17.0       16.0  成都市      38.0  2896      7222  66815        90900 二级    
10 10    18.0       12.5  南京市       1.00  614   9005852  26512        91500 三级    
# ... with 487 more rows, and 4 more variables: 有效出价数量 <dbl>, 商户成交价 <dbl>,
#   贬值率 <dbl>, 按里程分层类别 <dbl>
…
92            28       3.71 0.3409926              4      92 0.05263158       3
178           19       5.19 0.5195195              4     178 0.05263158       3
402           19       4.53 0.4674923              4     402 0.05263158       3
134           34       7.15 0.7962138              2     134 0.06818182       4
248           30       5.38 0.6344340              2     248 0.06818182       4
306           16       5.31 0.4132296              2     306 0.06818182       4
313           20       7.60 0.6915378              2     313 0.06818182       4
436           12       1.82 0.3315118              2     436 0.06818182       4
477           20       4.09 0.4761350              2     477 0.06818182       4
107           26       1.46 0.1282953              5     107 0.06060606       5
231            5       2.13 0.1748768              5     231 0.06060606       5
> var(strateSampling[,13])
[1] 0.02690548
> table_test1
# A tibble: 30 x 13
   X__2   X__1 厂商指导价 车辆归属地 品牌id 车系id  车型id   里程 最高有效出价 检测等级
   <chr> <dbl>      <dbl> <chr>       <dbl>  <dbl>   <dbl>  <dbl>        <dbl> <chr>   
 1 343     500      12.6  重庆市       1.00    614    5694  27676        66800 三级    
 2 352     521      19.4  北京市       1.00    333   13730  56268       101000 三级    
 3 476     692      12.0  深圳市       8.00   2871    4876  24266        78000 二级    
 4 404     598       9.98 苏州市       1.00    207    9617 162569        36900 三级    
 5 443     647      20.9  成都市      38.0     166    7371  84129       125600 二级    
 6 383     570      11.3  温州市      62.0    2886 9001123  11396        82600 一级    
 7 249     380      12.0  苏州市      63.0     425    8388 127971        27700 二级    
 8 168     259      67.5  上海市      36.0     197   12429 102347       212200 四级    
 9 478     696      12.5  宁波市      67.0     519   10808  55060        40100 三级    
10 427     627      22.0  太原市       1.00    496    6228  98058       138300 三级    
# ... with 20 more rows, and 3 more variables: 有效出价数量 <dbl>, 商户成交价 <dbl>,
#   贬值率 <dbl>
…
