> table_test1<-read_excel('/Users/neonrocks/Desktop/抽样调查期末报告的副本/二手车成交信息的副本.xlsx')
> table_test1
# A tibble: 30 x 14
   X__3  X__2   X__1 厂商指导价 车辆归属地 品牌id 车系id  车型id   里程 最高有效出价
   <chr> <chr> <dbl>      <dbl> <chr>       <dbl>  <dbl>   <dbl>  <dbl>        <dbl>
 1 1     343     500      12.6  重庆市       1.00    614    5694  27676        66800
 2 2     352     521      19.4  北京市       1.00    333   13730  56268       101000
 3 3     476     692      12.0  深圳市       8.00   2871    4876  24266        78000
 4 4     404     598       9.98 苏州市       1.00    207    9617 162569        36900
 5 5     443     647      20.9  成都市      38.0     166    7371  84129       125600
 6 6     383     570      11.3  温州市      62.0    2886 9001123  11396        82600
 7 7     249     380      12.0  苏州市      63.0     425    8388 127971        27700
 8 8     168     259      67.5  上海市      36.0     197   12429 102347       212200
 9 9     478     696      12.5  宁波市      67.0     519   10808  55060        40100
10 10    427     627      22.0  太原市       1.00    496    6228  98058       138300
# ... with 20 more rows, and 4 more variables: 检测等级 <chr>, 有效出价数量 <dbl>,
#   商户成交价 <dbl>, 贬值率 <dbl>
> table_test1[,8]
# A tibble: 30 x 1
    车型id
     <dbl>
 1    5694
 2   13730
 3    4876
 4    9617
 5    7371
 6 9001123
 7    8388
 8   12429
 9   10808
10    6228
# ... with 20 more rows
> table_test1[,9]
# A tibble: 30 x 1
     里程
    <dbl>
 1  27676
 2  56268
 3  24266
 4 162569
 5  84129
 6  11396
 7 127971
 8 102347
 9  55060
10  98058
# ... with 20 more rows
…
